{
  "db": {
    "name": "db",
    "connector": "memory"
  },
  "localStorage": {
    "name": "localStorage",
    "connector": "loopback-component-storage",
    "provider": "filesystem",
    "root": "./data",
    "nameConflict": "makeUnique",
    "maxFileSize": "524288000000"
  },
  "mongoDB": {
    "host": "localhost",
    "port": 27017,
    "url": "",
    "database": "tuttestorie",
    "password": "",
    "name": "mongoDB",
    "user": "",
    "connector": "mongodb"
  }
}
